alu.vcd
$date
	Wed Jan 25 22:50:29 2017
$end
$version
	ModelSim Version 10.4a
$end
$timescale
	1ns
$end

$scope module alu_tb $end
$var reg 1 ! clock $end
$var reg 1 " reset $end
$var reg 8 # primary_operand [7:0] $end
$var reg 8 $ secondary_operand [7:0] $end
$var reg 4 % operation [3:0] $end
$var reg 16 & result [15:0] $end
$var reg 3 ' flags [2:0] $end

$scope task test_operation $end
$var reg 8 ( tprimary [7:0] $end
$var reg 8 ) tsecondary [7:0] $end
$var reg 4 * toperation [3:0] $end
$var reg 8 + texpected_value [7:0] $end
$var reg 3 , texpected_flags [2:0] $end
$var integer 32 - lineNum $end
$upscope $end

$scope task test_operation16 $end
$var reg 8 . tprimary [7:0] $end
$var reg 8 / tsecondary [7:0] $end
$var reg 4 0 toperation [3:0] $end
$var reg 16 1 texpected_value [15:0] $end
$var reg 3 2 texpected_flags [2:0] $end
$var integer 32 3 lineNum $end
$upscope $end

$scope task system_reset $end
$upscope $end

$scope module alu_dut $end
$var wire 1 4 reset $end
$var wire 1 5 primary_operand [7] $end
$var wire 1 6 primary_operand [6] $end
$var wire 1 7 primary_operand [5] $end
$var wire 1 8 primary_operand [4] $end
$var wire 1 9 primary_operand [3] $end
$var wire 1 : primary_operand [2] $end
$var wire 1 ; primary_operand [1] $end
$var wire 1 < primary_operand [0] $end
$var wire 1 = secondary_operand [7] $end
$var wire 1 > secondary_operand [6] $end
$var wire 1 ? secondary_operand [5] $end
$var wire 1 @ secondary_operand [4] $end
$var wire 1 A secondary_operand [3] $end
$var wire 1 B secondary_operand [2] $end
$var wire 1 C secondary_operand [1] $end
$var wire 1 D secondary_operand [0] $end
$var wire 1 E operation [3] $end
$var wire 1 F operation [2] $end
$var wire 1 G operation [1] $end
$var wire 1 H operation [0] $end
$var reg 16 I result [15:0] $end
$var reg 3 J flags [2:0] $end
$upscope $end
$upscope $end

$scope begin std $end
$upscope $end
$enddefinitions $end
#0
$dumpvars
0!
1"
bx #
bx $
bx %
b0 &
b100 '
b0 I
b100 J
bx (
bx )
bx *
bx +
bx ,
bx .
bx /
bx 0
bx 1
bx 2
bx -
bx 3
14
x<
x;
x:
x9
x8
x7
x6
x5
xD
xC
xB
xA
x@
x?
x>
x=
xH
xG
xF
xE
$end
#50
1!
#100
0!
0"
04
b0 J
b100 J
#150
1!
#200
0!
1"
b11111111 (
b1111110 )
b1100 *
b1111110 +
b0 ,
b101110 -
14
#250
1!
#300
0!
b11111111 #
b1111110 $
b1100 %
0H
0G
1F
1E
0D
1C
1B
1A
1@
1?
1>
0=
1<
1;
1:
19
18
17
16
15
b1111110 I
b0 J
b0 '
b1111110 &
#350
1!
#355
b0 )
b0 +
b100 ,
b101111 -
#400
0!
b0 $
0C
0B
0A
0@
0?
0>
b0 I
b100 J
b100 '
b0 &
#450
1!
#455
b10000010 )
b10000010 +
b1 ,
b110000 -
#500
0!
b10000010 $
1C
1=
b10000010 I
b101 J
b1 J
b1 '
b10000010 &
#550
1!
#555
b10100 (
b11001 )
b1 *
b101101 +
b0 ,
b110011 -
#600
0!
b10100 #
b11001 $
b1 %
1H
0F
0E
1D
0C
1A
1@
0=
0<
0;
09
07
06
05
b101101 I
b0 J
b0 '
b101101 &
#650
1!
#655
b0 (
b0 )
b0 +
b100 ,
b110100 -
#700
0!
b0 #
b0 $
0D
0A
0@
0:
08
b0 I
b100 J
b100 '
b0 &
#750
1!
#755
b11110110 (
b1010 )
b110 ,
b110101 -
#800
0!
b11110110 #
b1010 $
1C
1A
1;
1:
18
17
16
15
b100000000 I
b110 J
b110 '
b100000000 &
#850
1!
#855
b110110 -
#900
0!
#950
1!
#955
b1111101 (
b10000111 +
b1 ,
b110111 -
#1000
0!
b1111101 #
1<
0;
19
05
b10000111 I
b100 J
b101 J
b1 J
b1 '
b10000111 &
#1050
1!
#1055
b10100 (
b101 )
b10 *
b1111 +
b0 ,
b111011 -
#1100
0!
b10100 #
b101 $
b10 %
0H
1G
1D
0C
1B
0A
0<
09
07
06
b1111 I
b0 J
b0 '
b1111 &
#1150
1!
#1155
b100001 (
b100001 )
b0 +
b100 ,
b111100 -
#1200
0!
b100001 #
b100001 $
0B
1?
1<
0:
08
17
b0 I
b100 J
b100 '
b0 &
#1250
1!
#1255
b11111111 (
b11 )
b11111100 +
b1 ,
b111101 -
#1300
0!
b11111111 #
b11 $
1C
0?
1;
1:
19
18
16
15
b11111100 I
b101 J
b1 J
b1 '
b11111100 &
#1350
1!
#1355
b1001111 (
b10000000 )
b11001111 +
b11 ,
b111110 -
#1400
0!
b1001111 #
b10000000 $
0D
0C
1=
08
07
05
b111001111 I
b11 J
b11 '
b111001111 &
#1450
1!
#1455
b0 (
b10000001 )
b1111111 +
b10 ,
b111111 -
#1500
0!
b0 #
b10000001 $
1D
0<
0;
0:
09
06
b101111111 I
b10 J
b10 '
b101111111 &
#1550
1!
#1555
b1100 .
b101 /
b11 0
b111100 1
b0 2
b1000010 3
#1600
0!
b1100 #
b101 $
b11 %
1H
1B
0=
1:
19
b111100 I
b0 J
b0 '
b111100 &
#1650
1!
#1655
b11111111 .
b11111111 /
b1111111000000001 1
b1 2
b1000011 3
#1700
0!
b11111111 #
b11111111 $
1C
1A
1@
1?
1>
1=
1<
1;
18
17
16
15
b1111111000000001 I
b1 J
b1 '
b1111111000000001 &
#1750
1!
#1755
b0 .
b0 /
b0 1
b100 2
b1000100 3
#1800
0!
b0 #
b0 $
0D
0C
0B
0A
0@
0?
0>
0=
0<
0;
0:
09
08
07
06
05
b0 I
b0 J
b100 J
b100 '
b0 &
#1850
1!
#1855
b10011100 .
b101 /
b1111111000001100 1
b1 2
b1000101 3
#1900
0!
b10011100 #
b101 $
1D
1B
1:
19
18
15
b1100001100 I
b0 J
b0 '
b1100001100 &
#1950
1!
#1955
b11100111 .
b11111100 /
b1100100 1
b0 2
b1000110 3
#2000
0!
b11100111 #
b11111100 $
0D
1A
1@
1?
1>
1=
1<
1;
09
08
17
16
b1110001101100100 I
b1 J
b1 '
b1110001101100100 &
#2050
1!
#2055
b11111111 (
b11111111 )
b100 *
b11111111 +
b1 ,
b1001001 -
#2100
0!
b11111111 #
b11111111 $
b100 %
0H
0G
1F
1D
1C
19
18
b1110001111111111 I
b1110001111111111 &
#2150
1!
#2155
b10101010 (
b1010101 )
b0 +
b100 ,
b1001010 -
#2200
0!
b10101010 #
b1010101 $
0C
0A
0?
0=
0<
0:
08
06
b1110001100000000 I
b0 J
b100 J
b100 '
b1110001100000000 &
#2250
1!
#2255
b1101011 (
b1010011 )
b1000011 +
b0 ,
b1001011 -
#2300
0!
b1101011 #
b1010011 $
1C
0B
1<
16
05
b1110001101000011 I
b0 J
b0 '
b1110001101000011 &
#2350
1!
#2355
b11111111 (
b11111111 )
b101 *
b11111111 +
b1 ,
b1001110 -
#2400
0!
b11111111 #
b11111111 $
b101 %
1H
1B
1A
1?
1=
1:
18
15
b1110001111111111 I
b1 J
b1 '
b1110001111111111 &
#2450
1!
#2455
b0 (
b0 )
b0 +
b100 ,
b1001111 -
#2500
0!
b0 #
b0 $
0D
0C
0B
0A
0@
0?
0>
0=
0<
0;
0:
09
08
07
06
05
b1110001100000000 I
b0 J
b100 J
b100 '
b1110001100000000 &
#2550
1!
#2555
b1101011 (
b1010011 )
b1111011 +
b0 ,
b1010000 -
#2600
0!
b1101011 #
b1010011 $
1D
1C
1@
1>
1<
1;
19
17
16
b1110001101111011 I
b0 J
b0 '
b1110001101111011 &
#2650
1!
#2655
b11111111 (
b11111111 )
b110 *
b1111111 +
b10 ,
b1010011 -
#2700
0!
b11111111 #
b11111111 $
b110 %
0H
1G
1B
1A
1?
1=
1:
18
15
b1110001101111111 I
b10 J
b10 '
b1110001101111111 &
#2750
1!
#2755
b0 (
b0 )
b0 +
b100 ,
b1010100 -
#2800
0!
b0 #
b0 $
0D
0C
0B
0A
0@
0?
0>
0=
0<
0;
0:
09
08
07
06
05
b1110001100000000 I
b0 J
b100 J
b100 '
b1110001100000000 &
#2850
1!
#2855
b1101010 (
b1010011 )
b110101 +
b0 ,
b1010101 -
#2900
0!
b1101010 #
b1010011 $
1D
1C
1@
1>
1;
19
17
16
b1110001100110101 I
b0 J
b0 '
b1110001100110101 &
#2950
1!
#2955
b11111111 (
b11111111 )
b111 *
b11111110 +
b11 ,
b1011000 -
#3000
0!
b11111111 #
b11111111 $
b111 %
1H
1B
1A
1?
1=
1<
1:
18
15
b1110001111111110 I
b10 J
b11 J
b11 '
b1110001111111110 &
#3050
1!
#3055
b0 (
b0 )
b0 +
b100 ,
b1011001 -
#3100
0!
b0 #
b0 $
0D
0C
0B
0A
0@
0?
0>
0=
0<
0;
0:
09
08
07
06
05
b1110001100000000 I
b1 J
b0 J
b100 J
b100 '
b1110001100000000 &
#3150
1!
#3155
b101010 (
b1010011 )
b1010100 +
b0 ,
b1011010 -
#3200
0!
b101010 #
b1010011 $
1D
1C
1@
1>
1;
19
17
b1110001101010100 I
b0 J
b0 '
b1110001101010100 &
#3250
1!
#3255
b11110000 (
b11111111 )
b1001 *
b11111000 +
b1 ,
b1011101 -
#3300
0!
b11110000 #
b11111111 $
b1001 %
0G
0F
1E
1B
1A
1?
1=
0;
09
18
16
15
b1110001101111000 I
b1110001101111000 &
#3350
1!
#3355
b0 (
b0 )
b0 +
b100 ,
b1011110 -
#3400
0!
b0 #
b0 $
0D
0C
0B
0A
0@
0?
0>
0=
08
07
06
05
b1110001100000000 I
b100 J
b100 '
b1110001100000000 &
#3450
1!
#3455
b1101010 (
b1010011 )
b110101 +
b0 ,
b1011111 -
#3500
0!
b1101010 #
b1010011 $
1D
1C
1@
1>
1;
19
17
16
b1110001100110101 I
b0 J
b0 '
b1110001100110101 &
#3550
1!
#3555
b11111111 (
b11111111 )
b1010 *
b11111110 +
b11 ,
b1100010 -
#3600
0!
b11111111 #
b11111111 $
b1010 %
0H
1G
1B
1A
1?
1=
1<
1:
18
15
b1110001111111110 I
b10 J
b11 J
b11 '
b1110001111111110 &
#3650
1!
#3655
b10000000 (
b0 )
b0 +
b110 ,
b1100011 -
#3700
0!
b10000000 #
b0 $
0D
0C
0B
0A
0@
0?
0>
0=
0<
0;
0:
09
08
07
06
b1110001100000000 I
b10 J
b110 J
b110 '
b1110001100000000 &
#3750
1!
#3755
b1101011 (
b1010011 )
b11010111 +
b1 ,
b1100100 -
#3800
0!
b1101011 #
b1010011 $
1D
1C
1@
1>
1<
1;
19
17
16
05
b1110001111010110 I
b100 J
b101 J
b1 J
b1 '
b1110001111010110 &
#3850
1!
#3855
b1 (
b11111111 )
b1011 *
b11111111 +
b1100111 -
#3900
0!
b1 #
b11111111 $
b1011 %
1H
1B
1A
1?
1=
0;
09
07
06
b1110001111111110 I
b1110001111111111 I
b1110001111111111 &
#3950
1!
#3955
b0 (
b0 +
b100 ,
b1101000 -
#4000
0!
b0 #
0<
b1110001100000000 I
b0 J
b100 J
b100 '
b1110001100000000 &
#4050
1!
#4055
b10000000 (
b10000000 +
b1 ,
b1101001 -
#4100
0!
b10000000 #
15
b1110001101111111 I
b1110001110000000 I
b101 J
b1 J
b1 '
b1110001110000000 &
#4150
1!
#4155
b11010011 (
b101101 +
b0 ,
b1101010 -
#4200
0!
b11010011 #
1<
1;
18
16
b1110001100101100 I
b1110001100101101 I
b0 J
b0 '
b1110001100101101 &
#4250
1!
#4255
b0 (
b1000 *
b11111111 +
b1 ,
b1101101 -
#4300
0!
b0 #
b1000 %
0H
0G
0<
0;
08
06
05
b1110001111111111 I
b1 J
b1 '
b1110001111111111 &
#4350
1!
#4355
b11111111 (
b0 +
b100 ,
b1101110 -
#4400
0!
b11111111 #
1<
1;
1:
19
18
17
16
15
b1110001100000000 I
b0 J
b100 J
b100 '
b1110001100000000 &
#4450
1!
#4455
b10101010 (
b1010101 +
b0 ,
b1101111 -
#4500
0!
b10101010 #
0<
0:
08
06
b1110001101010101 I
b0 J
b0 '
b1110001101010101 &
