control_state_machine.vcd
$date
	Tue Dec 27 19:14:00 2016
$end
$version
	ModelSim Version 10.4a
$end
$timescale
	1ns
$end

$scope module control_state_machine_tb $end
$var reg 1 ! clock $end
$var reg 1 " reset $end
$var reg 16 # instruction [15:0] $end
$var reg 5 $ state [4:0] $end
$var integer 32 % read_instruction $end
$var integer 32 & string_space $end
$var integer 32 ' string_comma $end

$scope task instruction_decode $end
$upscope $end

$scope module control_state_machine_dut $end
$var wire 1 ( instruction [15] $end
$var wire 1 ) instruction [14] $end
$var wire 1 * instruction [13] $end
$var wire 1 + instruction [12] $end
$var wire 1 , instruction [11] $end
$var wire 1 - instruction [10] $end
$var wire 1 . instruction [9] $end
$var wire 1 / instruction [8] $end
$var wire 1 0 instruction [7] $end
$var wire 1 1 instruction [6] $end
$var wire 1 2 instruction [5] $end
$var wire 1 3 instruction [4] $end
$var wire 1 4 instruction [3] $end
$var wire 1 5 instruction [2] $end
$var wire 1 6 instruction [1] $end
$var wire 1 7 instruction [0] $end
$var wire 1 8 clock $end
$var wire 1 9 reset $end
$var reg 5 : state [4:0] $end
$upscope $end
$upscope $end

$scope begin control_state_machine_tb_sv_unit $end
$var parameter 32 ; string_len $end
$var integer 32 < gp_registers $end
$upscope $end

$scope begin std $end
$upscope $end
$enddefinitions $end
#0
$dumpvars
0!
1"
bx #
bx $
bx :
b11001000 ;
b0 <
bx %
b0 &
b0 '
08
19
x7
x6
x5
x4
x3
x2
x1
x0
x/
x.
x-
x,
x+
x*
x)
x(
$end
#50
1!
18
#100
0!
08
0"
09
#150
1!
18
b0 :
b0 $
#200
0!
08
1"
b10000000000000000000000000000011 %
19
#250
1!
18
b1 :
b1 $
#300
0!
08
#350
1!
18
b10 :
b10 $
#400
0!
08
b1 #
b0 #
07
06
05
04
03
02
01
00
0/
0.
0-
0,
0+
0*
0)
0(
#450
1!
18
b1 :
b1 $
#500
0!
08
#550
1!
18
b10 :
b10 $
#600
0!
08
b1 #
b0 #
b100 &
b110 '
b1000000000000000 #
b1000010000000000 #
b1000010000001000 #
14
1-
1(
#650
1!
18
b110 :
b110 $
#700
0!
08
#750
1!
18
b1 :
b1 $
#800
0!
08
#850
1!
18
b10 :
b10 $
#900
0!
08
b1 #
b0 &
b0 '
b0 #
b100 &
b110 '
b1000000000000000 #
b1000001000000000 #
b1000001000010000 #
04
13
1.
0-
#950
1!
18
b1000 :
b1000 $
#1000
0!
08
#1050
1!
18
b1001 :
b1001 $
#1100
0!
08
#1150
1!
18
b1010 :
b1010 $
#1200
0!
08
#1250
1!
18
b1 :
b1 $
#1300
0!
08
#1350
1!
18
b10 :
b10 $
#1400
0!
08
b1 #
b0 &
b0 '
b0 #
b100 &
b110 '
b1000000000000000 #
b1000000001000000 #
03
11
0.
#1450
1!
18
b111 :
b111 $
#1500
0!
08
#1550
1!
18
b10101 :
b10101 $
#1600
0!
08
#1650
1!
18
b1 :
b1 $
#1700
0!
08
#1750
1!
18
b10 :
b10 $
#1800
0!
08
b1 #
b0 &
b0 '
b0 #
b101 &
b111 '
b1000100000000000 #
b1000100000010000 #
13
01
1,
#1850
1!
18
b1000 :
b1000 $
#1900
0!
08
#1950
1!
18
b1001 :
b1001 $
#2000
0!
08
#2050
1!
18
b1011 :
b1011 $
#2100
0!
08
#2150
1!
18
b1 :
b1 $
#2200
0!
08
#2250
1!
18
b10 :
b10 $
#2300
0!
08
b1 #
b0 &
b0 '
b0 #
b100 &
b1001 '
b1001000000000000 #
b1001001000000000 #
03
1.
0,
1+
#2350
1!
18
b1000 :
b1000 $
#2400
0!
08
#2450
1!
18
b1001 :
b1001 $
#2500
0!
08
#2550
1!
18
b1100 :
b1100 $
#2600
0!
08
#2650
1!
18
b1101 :
b1101 $
#2700
0!
08
#2750
1!
18
b1110 :
b1110 $
#2800
0!
08
#2850
1!
18
b1111 :
b1111 $
#2900
0!
08
#2950
1!
18
b1 :
b1 $
#3000
0!
08
#3050
1!
18
b10 :
b10 $
#3100
0!
08
b1 #
b0 &
b0 '
b0 #
b11 &
b101 '
b100000000000 #
b100001000000 #
b100001010000 #
13
11
0.
1,
0+
0(
#3150
1!
18
b11 :
b11 $
#3200
0!
08
#3250
1!
18
b100 :
b100 $
#3300
0!
08
#3350
1!
18
b1 :
b1 $
#3400
0!
08
#3450
1!
18
b10 :
b10 $
#3500
0!
08
b1 #
b0 &
b0 '
b0 #
b11 &
b101 '
b1100000000000 #
b1100000000100 #
15
03
01
1+
#3550
1!
18
b11 :
b11 $
#3600
0!
08
#3650
1!
18
b100 :
b100 $
#3700
0!
08
#3750
1!
18
b101 :
b101 $
#3800
0!
08
#3850
1!
18
b1 :
b1 $
#3900
0!
08
#3950
1!
18
b10 :
b10 $
#4000
0!
08
b1 #
b0 &
b0 '
b0 #
b11 &
b101 '
b1000000000000 #
b1010000000000 #
b1010000010100 #
13
1-
0,
#4050
1!
18
b110 :
b110 $
#4100
0!
08
#4150
1!
18
b11 :
b11 $
#4200
0!
08
#4250
1!
18
b100 :
b100 $
#4300
0!
08
#4350
1!
18
b1 :
b1 $
#4400
0!
08
#4450
1!
18
b10 :
b10 $
#4500
0!
08
b1 #
b0 &
b0 '
b0 #
b11 &
b101 '
b1100000000000 #
b1110000000000 #
b1110000001100 #
14
03
1,
#4550
1!
18
b110 :
b110 $
#4600
0!
08
#4650
1!
18
b11 :
b11 $
#4700
0!
08
#4750
1!
18
b100 :
b100 $
#4800
0!
08
#4850
1!
18
b101 :
b101 $
#4900
0!
08
#4950
1!
18
b1 :
b1 $
#5000
0!
08
#5050
1!
18
b10 :
b10 $
#5100
0!
08
b1 #
b0 &
b0 '
b0 #
b1111100000000000 #
b1111100000001100 #
0-
1*
1)
1(
#5150
1!
18
b10011 :
b10011 $
